D+
B-
B+
B+
B+
C+
B+
C
B+
A
F
B+
B+
B-
B+
B-
C
A-
C-
B+
D+
B+
B+
B+
B
F
B+
D-
B+
C+
D+
B+
B-
B+
B+
D+
D+
F
B+
B+
B+
D+
C+
A
B-
B+
B-
B+
D+
B
B-
F
C-
D+
B+
B+
D+
B-
B+
F
B
C+
B+
A
F
B+
C
B+
D+
C
B-
D+
D+
B
F
B+
D+
B-
B
D+
B+
B+
C
B+
C+
B-
C
B+
C-
B+
B+
B-
B-
F
A
D+
D-
C
D-
C-
D+
B+
B+
B+
D-
B-
B+
B-
C+
D-
B-
B+
D+
B+
B+
B+
F
D-
A
C
A
D-
B-
D+
B+
B+
B+
F
B
F
B+
B-
C+
D+
C-
B+
B-
A-
D+
F
F
B
D+
B
B+
B
D+
B+
B+
B-
F
A
B-
B+
C
B+
B+
A
D+
A
B-
A
B+
B+
F
B
F
D+
C-
C
C-
C+
D+
D+
B
A
B+
D+
B+
B+
D+
A
D+
C-
A-
F
B+
D+
B-
B-
B+
C+
C+
B+
D+
B+
D+
F
B-
B+
F
B+
C
F
B+
B+
D+
B+
B-
C
B+
A
B-
C
D+
B-
D+
A
B+
A
D-
F
C+
A-
C
B+
B+
D+
B+
B-
C+
D+
A
B-
A-
A
B-
B
B+
B+
B+
D+
B
B+
B+
B-
B+
B+
C+
B+
